[gd_scene load_steps=2 format=2]

[ext_resource path="res://fonts/ddrkirbyisq.tres" type="DynamicFont" id=1]

[node name="CopyProtectScene" type="CanvasLayer"]

[node name="ColorRect" type="ColorRect" parent="."]
anchor_right = 1.0
anchor_bottom = 1.0
color = Color( 0, 0, 0, 1 )

[node name="Label" type="Label" parent="."]
anchor_right = 1.0
anchor_bottom = 1.0
custom_fonts/font = ExtResource( 1 )
text = "Site Lock violation detected!
Please don't steal games!"
align = 1
valign = 1
