[gd_scene load_steps=2 format=2]

[ext_resource path="res://scenes/LightCutscene.gd" type="Script" id=1]

[node name="ColorRect" type="ColorRect"]
anchor_right = 1.0
anchor_bottom = 1.0
color = Color( 0, 0, 0, 1 )
script = ExtResource( 1 )
