[gd_scene load_steps=4 format=2]

[ext_resource path="res://obstacles/Spike.gd" type="Script" id=1]
[ext_resource path="res://obstacles/spike.png" type="Texture" id=2]

[sub_resource type="RectangleShape2D" id=1]
extents = Vector2( 4, 4 )

[node name="Spike" type="Area2D"]
script = ExtResource( 1 )

[node name="Sprite" type="Sprite" parent="."]
texture = ExtResource( 2 )

[node name="CollisionShape2D" type="CollisionShape2D" parent="."]
shape = SubResource( 1 )
