[gd_scene load_steps=8 format=2]

[ext_resource path="res://enemies/spike-hammer.tscn" type="PackedScene" id=1]
[ext_resource path="res://levels/tileset1.tres" type="TileSet" id=2]
[ext_resource path="res://levels/animated-tileset.tres" type="TileSet" id=3]
[ext_resource path="res://levels/spawn-point.tscn" type="PackedScene" id=4]
[ext_resource path="res://unlocks/unlock-pickup.tscn" type="PackedScene" id=5]
[ext_resource path="res://unlocks/hearing.png" type="Texture" id=6]

[sub_resource type="RectangleShape2D" id=1]
extents = Vector2( 100, 60 )

[node name="1-5" type="Area2D"]
collision_layer = 0
collision_mask = 5

[node name="CollisionShape2D" type="CollisionShape2D" parent="."]
visible = false
position = Vector2( 100, 60 )
shape = SubResource( 1 )

[node name="SpikeHammer" parent="." instance=ExtResource( 1 )]
position = Vector2( 50, 70 )

[node name="SpikeHammer2" parent="." instance=ExtResource( 1 )]
position = Vector2( 160, 70 )

[node name="Base" type="TileMap" parent="."]
tile_set = ExtResource( 2 )
cell_size = Vector2( 10, 10 )
format = 1
tile_data = PoolIntArray( 0, 0, 131081, 1, 0, 131081, 2, 0, 131081, 3, 0, 131081, 4, 0, 131081, 5, 0, 131081, 6, 0, 131081, 7, 0, 131081, 8, 0, 131081, 9, 0, 131081, 10, 0, 131081, 11, 0, 131081, 12, 0, 131081, 13, 0, 131081, 14, 0, 131081, 15, 0, 131081, 16, 0, 131081, 17, 0, 131081, 18, 0, 131081, 19, 0, 131081, 65536, 0, 131081, 65537, 0, 131081, 65538, 0, 131081, 65539, 0, 131081, 65540, 0, 131081, 65541, 0, 131081, 65542, 0, 131081, 65543, 0, 131081, 65544, 0, 131081, 65545, 0, 131081, 65546, 0, 131081, 65547, 0, 131081, 65548, 0, 131081, 65549, 0, 131081, 65550, 0, 131081, 65551, 0, 131081, 65552, 0, 131081, 65553, 0, 131081, 65554, 0, 131081, 65555, 0, 131081, 131072, 0, 131081, 131073, 0, 131081, 131074, 0, 131081, 131075, 0, 131081, 131076, 0, 131081, 131077, 0, 131081, 131078, 0, 131081, 131079, 0, 131081, 131080, 0, 131081, 131081, 0, 131081, 131082, 0, 131081, 131083, 0, 131081, 131084, 0, 131081, 131085, 0, 131081, 131086, 0, 131081, 131087, 0, 131081, 131088, 0, 131081, 131089, 0, 131081, 131090, 0, 131081, 131091, 0, 131081, 196608, 0, 131081, 196609, 0, 131081, 196610, 0, 131081, 196611, 0, 131081, 196612, 0, 131081, 196613, 0, 131081, 196614, 0, 131081, 196615, 0, 131081, 196616, 0, 131081, 196617, 0, 131081, 196618, 0, 131081, 196619, 0, 131081, 196620, 0, 131081, 196621, 0, 131081, 196622, 0, 131081, 196623, 0, 131081, 196624, 0, 131081, 196625, 0, 131081, 196626, 0, 131081, 196627, 0, 131081, 262144, 0, 131081, 262145, 0, 131081, 262146, 0, 131081, 262147, 0, 131081, 262148, 0, 131081, 262149, 0, 131081, 262150, 0, 131081, 262151, 0, 131081, 262152, 0, 131081, 262153, 0, 131081, 262154, 0, 131081, 262155, 0, 131081, 262156, 0, 131081, 262157, 0, 131081, 262158, 0, 131081, 262159, 0, 131081, 262160, 0, 131081, 262161, 0, 131081, 262162, 0, 131081, 262163, 0, 131081, 327680, 0, 131081, 327681, 0, 131081, 327682, 0, 131081, 327683, 0, 131081, 327684, 0, 131081, 327685, 0, 131081, 327686, 0, 131081, 327687, 0, 131081, 327688, 0, 131081, 327689, 0, 131081, 327690, 0, 131081, 327691, 0, 131081, 327692, 0, 131081, 327693, 0, 131081, 327694, 0, 131081, 327695, 0, 131081, 327696, 0, 131081, 327697, 0, 131081, 327698, 0, 131081, 327699, 0, 131081, 393216, 0, 196617, 393217, 0, 196617, 393218, 0, 196617, 393219, 0, 196618, 393220, 0, 196617, 393221, 0, 196617, 393222, 0, 196618, 393223, 0, 196617, 393224, 0, 196617, 393225, 0, 196617, 393226, 0, 196617, 393227, 0, 196617, 393228, 0, 196617, 393229, 0, 196617, 393230, 0, 196618, 393231, 0, 196617, 393232, 0, 196617, 393233, 0, 196618, 393234, 0, 196617, 393235, 0, 196617, 458755, 0, 131072, 458758, 0, 131072, 458766, 0, 131072, 458769, 0, 131072, 655360, 0, 10, 655361, 0, 10, 655362, 0, 10, 655363, 0, 10, 655364, 0, 10, 655365, 0, 10, 655366, 0, 10, 655367, 0, 10, 655368, 0, 10, 655369, 0, 10, 655370, 0, 10, 655371, 0, 10, 655372, 0, 10, 655373, 0, 10, 655374, 0, 10, 655375, 0, 10, 655376, 0, 10, 655377, 0, 10, 655378, 0, 10, 655379, 0, 10, 720896, 0, 131081, 720897, 0, 131081, 720898, 0, 131081, 720899, 0, 131081, 720900, 0, 131081, 720901, 0, 131081, 720902, 0, 131081, 720903, 0, 131081, 720904, 0, 131081, 720905, 0, 131081, 720906, 0, 131081, 720907, 0, 131081, 720908, 0, 131081, 720909, 0, 131081, 720910, 0, 131081, 720911, 0, 131081, 720912, 0, 131081, 720913, 0, 131081, 720914, 0, 131081, 720915, 0, 131081 )

[node name="Animated" type="TileMap" parent="."]
tile_set = ExtResource( 3 )
cell_size = Vector2( 10, 10 )
format = 1
tile_data = PoolIntArray( 589827, 0, 0, 589828, 0, 0, 655361, 0, 0, 655362, 0, 0, 655363, 0, 0, 655364, 0, 0, 655369, 0, 0, 655370, 0, 0, 655371, 0, 0, 655372, 0, 0, 720896, 0, 0, 720897, 0, 0, 720898, 0, 0, 720899, 0, 0, 720900, 0, 0, 720901, 0, 0, 720902, 0, 0, 720903, 0, 0, 720904, 0, 0, 720905, 0, 0, 720906, 0, 0, 720907, 0, 0, 720908, 0, 0 )

[node name="SpawnPoint" parent="." instance=ExtResource( 4 )]
position = Vector2( 13, 93 )

[node name="UnlockPickup" parent="." instance=ExtResource( 5 )]
position = Vector2( 105, 94 )
texture = ExtResource( 6 )
feature = "game_hearing"
