[gd_scene load_steps=7 format=2]

[ext_resource path="res://levels/tileset1.tres" type="TileSet" id=1]
[ext_resource path="res://levels/animated-tileset.tres" type="TileSet" id=2]
[ext_resource path="res://levels/spawn-point.tscn" type="PackedScene" id=3]
[ext_resource path="res://unlocks/unlock-pickup.tscn" type="PackedScene" id=4]
[ext_resource path="res://unlocks/music.png" type="Texture" id=5]

[sub_resource type="RectangleShape2D" id=1]
extents = Vector2( 100, 60 )

[node name="1-5b" type="Area2D"]
collision_layer = 0
collision_mask = 5

[node name="CollisionShape2D" type="CollisionShape2D" parent="."]
visible = false
position = Vector2( 100, 60 )
shape = SubResource( 1 )

[node name="Base" type="TileMap" parent="."]
tile_set = ExtResource( 1 )
cell_size = Vector2( 10, 10 )
format = 1
tile_data = PoolIntArray( 0, 0, 131081, 1, 0, 131081, 2, 0, 131081, 3, 0, 131081, 4, 0, 131081, 5, 0, 131081, 6, 0, 131081, 7, 0, 131081, 8, 0, 131081, 9, 0, 131081, 10, 0, 131081, 11, 0, 131081, 12, 0, 131081, 13, 0, 131081, 14, 0, 131081, 15, 0, 131081, 16, 0, 131081, 17, 0, 131081, 18, 0, 131081, 19, 0, 131081, 65536, 0, 131081, 65537, 0, 131081, 65538, 0, 131081, 65539, 0, 131081, 65540, 0, 131081, 65541, 0, 131081, 65542, 0, 131081, 65543, 0, 131081, 65544, 0, 131081, 65545, 0, 131081, 65546, 0, 131081, 65547, 0, 131081, 65548, 0, 131081, 65549, 0, 131081, 65550, 0, 131081, 65551, 0, 131081, 65552, 0, 131081, 65553, 0, 131081, 65554, 0, 131081, 65555, 0, 131081, 131072, 0, 131081, 131073, 0, 131081, 131074, 0, 131081, 131075, 0, 131081, 131076, 0, 131081, 131077, 0, 131081, 131078, 0, 131081, 131079, 0, 131081, 131080, 0, 131081, 131081, 0, 131081, 131082, 0, 131081, 131083, 0, 131081, 131084, 0, 131081, 131085, 0, 131081, 131086, 0, 131081, 131087, 0, 131081, 131088, 0, 131081, 131089, 0, 131081, 131090, 0, 131081, 131091, 0, 131081, 196608, 0, 131081, 196609, 0, 131081, 196610, 0, 131081, 196611, 0, 131081, 196612, 0, 131081, 196613, 0, 131081, 196614, 0, 131078, 196615, 0, 196617, 196616, 0, 196617, 196617, 0, 196617, 196618, 0, 196617, 196619, 0, 131077, 196620, 0, 131078, 196621, 0, 196617, 196622, 0, 196617, 196623, 0, 131077, 196624, 0, 131081, 196625, 0, 131081, 196626, 0, 131081, 196627, 0, 131081, 262144, 0, 131081, 262145, 0, 131081, 262146, 0, 131081, 262147, 0, 131078, 262148, 0, 196617, 262149, 0, 196617, 262150, 0, 196619, 262155, 0, 196616, 262156, 0, 196619, 262159, 0, 196616, 262160, 0, 196617, 262161, 0, 131077, 262162, 0, 131081, 262163, 0, 131081, 327680, 0, 131081, 327681, 0, 131081, 327682, 0, 131078, 327683, 0, 196619, 327697, 0, 196616, 327698, 0, 131077, 327699, 0, 131081, 393216, 0, 196617, 393217, 0, 196617, 393218, 0, 196619, 393234, 0, 65544, 393235, 0, 131081, 458770, 0, 65544, 458771, 0, 131081, 524305, 0, 8, 524306, 0, 65541, 524307, 0, 131081, 589840, 0, 8, 589841, 0, 65541, 589842, 0, 131081, 589843, 0, 131081, 655360, 0, 10, 655361, 0, 10, 655362, 0, 10, 655363, 0, 10, 655364, 0, 10, 655365, 0, 10, 655366, 0, 10, 655367, 0, 10, 655368, 0, 10, 655369, 0, 10, 655370, 0, 10, 655371, 0, 11, 655375, 0, 8, 655376, 0, 65541, 655377, 0, 131081, 655378, 0, 131081, 655379, 0, 131081, 720896, 0, 131081, 720897, 0, 131081, 720898, 0, 131081, 720899, 0, 131081, 720900, 0, 131081, 720901, 0, 131081, 720902, 0, 131081, 720903, 0, 131081, 720904, 0, 131081, 720905, 0, 131081, 720906, 0, 131081, 720907, 0, 65542, 720908, 0, 11, 720911, 0, 65544, 720912, 0, 131081, 720913, 0, 131081, 720914, 0, 131081, 720915, 0, 131081 )

[node name="Animated" type="TileMap" parent="."]
tile_set = ExtResource( 2 )
cell_size = Vector2( 10, 10 )
format = 1
tile_data = PoolIntArray( 589827, 0, 0, 589828, 0, 0, 655361, 0, 0, 655362, 0, 0, 655363, 0, 0, 655364, 0, 0, 655369, 0, 0, 655370, 0, 0, 655371, 0, 0, 655372, 0, 0, 720896, 0, 0, 720897, 0, 0, 720898, 0, 0, 720899, 0, 0, 720900, 0, 0, 720901, 0, 0, 720902, 0, 0, 720903, 0, 0, 720904, 0, 0, 720905, 0, 0, 720906, 0, 0, 720907, 0, 0, 720908, 0, 0 )

[node name="SpawnPoint" parent="." instance=ExtResource( 3 )]
position = Vector2( 13, 93 )

[node name="UnlockPickup" parent="." instance=ExtResource( 4 )]
position = Vector2( 75, 94 )
texture = ExtResource( 5 )
feature = "game_music"
