[gd_scene load_steps=5 format=2]

[ext_resource path="res://levels/tileset1.tres" type="TileSet" id=1]
[ext_resource path="res://levels/animated-tileset.tres" type="TileSet" id=2]
[ext_resource path="res://levels/spawn-point.tscn" type="PackedScene" id=3]

[sub_resource type="RectangleShape2D" id=1]
extents = Vector2( 100, 60 )

[node name="1-6" type="Area2D"]
collision_layer = 0
collision_mask = 5

[node name="CollisionShape2D" type="CollisionShape2D" parent="."]
visible = false
position = Vector2( 100, 60 )
shape = SubResource( 1 )

[node name="Base" type="TileMap" parent="."]
tile_set = ExtResource( 1 )
cell_size = Vector2( 10, 10 )
format = 1
tile_data = PoolIntArray( 65535, 0, 8, 0, 0, 131081, 1, 0, 131081, 2, 0, 131081, 3, 0, 131081, 4, 0, 131081, 5, 0, 131081, 6, 0, 131081, 7, 0, 131081, 8, 0, 131081, 9, 0, 131081, 10, 0, 131081, 11, 0, 131081, 12, 0, 131083, 15, 0, 65544, 16, 0, 131081, 17, 0, 131081, 18, 0, 131081, 19, 0, 131081, 131071, 0, 65544, 65536, 0, 131081, 65537, 0, 131081, 65538, 0, 131081, 65539, 0, 131081, 65540, 0, 131081, 65541, 0, 131081, 65542, 0, 131081, 65543, 0, 131081, 65544, 0, 131081, 65545, 0, 131081, 65546, 0, 131081, 65547, 0, 131081, 65548, 0, 131083, 65551, 0, 65544, 65552, 0, 131081, 65553, 0, 131081, 65554, 0, 131081, 65555, 0, 131081, 196607, 0, 65544, 131072, 0, 131081, 131073, 0, 131081, 131074, 0, 131081, 131075, 0, 131081, 131076, 0, 131081, 131077, 0, 131081, 131078, 0, 131081, 131079, 0, 131081, 131080, 0, 131081, 131081, 0, 131081, 131082, 0, 131081, 131083, 0, 131078, 131084, 0, 196619, 131087, 0, 65544, 131088, 0, 131081, 131089, 0, 131081, 131090, 0, 131081, 131091, 0, 131081, 262143, 0, 65544, 196608, 0, 131081, 196609, 0, 131081, 196610, 0, 131081, 196611, 0, 131081, 196612, 0, 131081, 196613, 0, 131081, 196614, 0, 131081, 196615, 0, 131081, 196616, 0, 131078, 196617, 0, 196617, 196618, 0, 196617, 196619, 0, 196619, 196623, 0, 196616, 196624, 0, 131077, 196625, 0, 131081, 196626, 0, 131081, 196627, 0, 131081, 327679, 0, 65544, 262144, 0, 131081, 262145, 0, 131081, 262146, 0, 131081, 262147, 0, 131081, 262148, 0, 131081, 262149, 0, 131081, 262150, 0, 131078, 262151, 0, 196617, 262152, 0, 196619, 262160, 0, 65544, 262161, 0, 131081, 262162, 0, 131081, 262163, 0, 131081, 393215, 0, 65544, 327680, 0, 131081, 327681, 0, 131081, 327682, 0, 131081, 327683, 0, 131081, 327684, 0, 131078, 327685, 0, 196617, 327686, 0, 196619, 327696, 0, 196616, 327697, 0, 196617, 327698, 0, 196617, 327699, 0, 196618, 458751, 0, 65544, 393216, 0, 131081, 393217, 0, 131081, 393218, 0, 131081, 393219, 0, 131078, 393220, 0, 196619, 524287, 0, 65544, 458752, 0, 131081, 458753, 0, 131081, 458754, 0, 131081, 458755, 0, 131083, 589823, 0, 65544, 524288, 0, 131081, 524289, 0, 131081, 524290, 0, 131081, 524291, 0, 131083, 524300, 0, 8, 524301, 0, 10, 524302, 0, 10, 524303, 0, 10, 524304, 0, 10, 524305, 0, 10, 524306, 0, 10, 524307, 0, 10, 655359, 0, 65544, 589824, 0, 131081, 589825, 0, 131081, 589826, 0, 131081, 589827, 0, 65542, 589828, 0, 11, 589835, 0, 8, 589836, 0, 65541, 589837, 0, 131081, 589838, 0, 131081, 589839, 0, 131081, 589840, 0, 131081, 589841, 0, 131081, 589842, 0, 131081, 589843, 0, 131081, 720895, 0, 65544, 655360, 0, 131081, 655361, 0, 131081, 655362, 0, 131081, 655363, 0, 131081, 655364, 0, 65542, 655365, 0, 11, 655369, 0, 8, 655370, 0, 10, 655371, 0, 65541, 655372, 0, 131081, 655373, 0, 131081, 655374, 0, 131081, 655375, 0, 131081, 655376, 0, 131081, 655377, 0, 131081, 655378, 0, 131081, 655379, 0, 131081, 786431, 0, 196616, 720896, 0, 131081, 720897, 0, 131081, 720898, 0, 131081, 720899, 0, 131081, 720900, 0, 131081, 720901, 0, 131083, 720905, 0, 65544, 720906, 0, 131081, 720907, 0, 131081, 720908, 0, 131081, 720909, 0, 131081, 720910, 0, 131081, 720911, 0, 131081, 720912, 0, 131081, 720913, 0, 131081, 720914, 0, 131081, 720915, 0, 131081 )

[node name="Animated" type="TileMap" parent="."]
tile_set = ExtResource( 2 )
cell_size = Vector2( 10, 10 )
format = 1
tile_data = PoolIntArray( 589827, 0, 0, 589828, 0, 0, 655361, 0, 0, 655362, 0, 0, 655363, 0, 0, 655364, 0, 0, 655369, 0, 0, 655370, 0, 0, 655371, 0, 0, 655372, 0, 0, 720896, 0, 0, 720897, 0, 0, 720898, 0, 0, 720899, 0, 0, 720900, 0, 0, 720901, 0, 0, 720902, 0, 0, 720903, 0, 0, 720904, 0, 0, 720905, 0, 0, 720906, 0, 0, 720907, 0, 0, 720908, 0, 0 )

[node name="SpawnPoint" parent="." instance=ExtResource( 3 )]
position = Vector2( 139, 73 )
